Data manipulation with dplyr II
…
high <- read_csv(paste0(path_to_data, "algae_hightide.csv"))

## Parsed with column specification:
## cols(
##   herbivores = col_character(),
##   area = col_double()
## )

low #dont type (print)

## # A tibble: 32 x 2
##    herbivores  area
##    <chr>      <dbl>
##  1 no          9.41
##  2 no         34.5 
##  3 no         46.7 
##  4 no         16.6 
##  5 no         24.4 
##  6 no         38.4 
##  7 no         33.8 
##  8 no         61.1 
##  9 no         35.5 
## 10 no         46.2 
## #  with 22 more rows

high

## # A tibble: 32 x 2
##    herbivores   area
##    <chr>       <dbl>
##  1 no          0.707
##  2 no         25.0  
##  3 no         46.6  
##  4 no          0.707
##  5 no          5.14 
##  6 no          6.18 
##  7 no         47.0  
##  8 no         22.9  
##  9 no         19.4  
## 10 no         37.1  
## #  with 22 more rows

## This code chunk should perform the analysis, and export the final CSV
low %>%
  mutate(tide = "low") -> low_newtidecolumn
low_newtidecolumn

## # A tibble: 32 x 3
##    herbivores  area tide 
##    <chr>      <dbl> <chr>
##  1 no          9.41 low  
##  2 no         34.5  low  
##  3 no         46.7  low  
##  4 no         16.6  low  
##  5 no         24.4  low  
##  6 no         38.4  low  
##  7 no         33.8  low  
##  8 no         61.1  low  
##  9 no         35.5  low  
## 10 no         46.2  low  
## #  with 22 more rows

high %>% 
  mutate(tide = "high") -> high_newtidecolumn

high_newtidecolumn 

## # A tibble: 32 x 3
##    herbivores   area tide 
##    <chr>       <dbl> <chr>
##  1 no          0.707 high 
##  2 no         25.0   high 
##  3 no         46.6   high 
##  4 no          0.707 high 
##  5 no          5.14  high 
##  6 no          6.18  high 
##  7 no         47.0   high 
##  8 no         22.9   high 
##  9 no         19.4   high 
## 10 no         37.1   high 
## #  with 22 more rows

bind_rows(low_newtidecolumn, high_newtidecolumn) -> algae_full

algae_full #checking to make sure data is combined 

## # A tibble: 64 x 3
##    herbivores  area tide 
##    <chr>      <dbl> <chr>
##  1 no          9.41 low  
##  2 no         34.5  low  
##  3 no         46.7  low  
##  4 no         16.6  low  
##  5 no         24.4  low  
##  6 no         38.4  low  
##  7 no         33.8  low  
##  8 no         61.1  low  
##  9 no         35.5  low  
## 10 no         46.2  low  
## #  with 54 more rows
…
All rows with NA are removed, using drop_na().

All rows with NA in the conservation column ONLY are removed, using drop_na(). The result will still have NAs, just not in this column.

All rows with NA in the brainwt column ONLY are removed, using drop_na(). The result will still have NAs, just not in this column.

All NAs in the column brainwt are replaced with the number 0, using replace_na(). (But think: should you ever actually do this in real data analysis? ..NO.)

Be sure to print the output for each new version!

## define the FOUR new data frames here
msleep #viewing to see data table

## # A tibble: 83 x 11
##    name  genus vore  order conservation sleep_total sleep_rem sleep_cycle awake
##    <chr> <chr> <chr> <chr> <chr>              <dbl>     <dbl>       <dbl> <dbl>
##  1 Chee Acin carni Carn lc                  12.1      NA        NA      11.9
##  2 Owl  Aotus omni  Prim <NA>                17         1.8      NA       7  
##  3 Moun Aplo herbi Rode nt                  14.4       2.4      NA       9.6
##  4 Grea Blar omni  Sori lc                  14.9       2.3       0.133   9.1
##  5 Cow   Bos   herbi Arti domesticated         4         0.7       0.667  20  
##  6 Thre Brad herbi Pilo <NA>                14.4       2.2       0.767   9.6
##  7 Nort Call carni Carn vu                   8.7       1.4       0.383  15.3
##  8 Vesp Calo <NA>  Rode <NA>                 7        NA        NA      17  
##  9 Dog   Canis carni Carn domesticated        10.1       2.9       0.333  13.9
## 10 Roe  Capr herbi Arti lc                   3        NA        NA      21  
## #  with 73 more rows, and 2 more variables: brainwt <dbl>, bodywt <dbl>
…
msleep %>%
  drop_na(conservation) -> msleep_naconservation #specifying which drop_na

msleep_naconservation

## # A tibble: 54 x 11
##    name  genus vore  order conservation sleep_total sleep_rem sleep_cycle awake
##    <chr> <chr> <chr> <chr> <chr>              <dbl>     <dbl>       <dbl> <dbl>
##  1 Chee Acin carni Carn lc                  12.1      NA        NA      11.9
##  2 Moun Aplo herbi Rode nt                  14.4       2.4      NA       9.6
##  3 Grea Blar omni  Sori lc                  14.9       2.3       0.133   9.1
##  4 Cow   Bos   herbi Arti domesticated         4         0.7       0.667  20  
##  5 Nort Call carni Carn vu                   8.7       1.4       0.383  15.3
##  6 Dog   Canis carni Carn domesticated        10.1       2.9       0.333  13.9
##  7 Roe  Capr herbi Arti lc                   3        NA        NA      21  
##  8 Goat  Capri herbi Arti lc                   5.3       0.6      NA      18.7
##  9 Guin Cavis herbi Rode domesticated         9.4       0.8       0.217  14.6
## 10 Griv Cerc omni  Prim lc                  10         0.7      NA      14  
## #  with 44 more rows, and 2 more variables: brainwt <dbl>, bodywt <dbl>

msleep %>%
  drop_na(brainwt) -> msleep_nabrainwt #named it because na for brainwt removed

msleep_nabrainwt

## # A tibble: 56 x 11
##    name  genus vore  order conservation sleep_total sleep_rem sleep_cycle awake
##    <chr> <chr> <chr> <chr> <chr>              <dbl>     <dbl>       <dbl> <dbl>
##  1 Owl  Aotus omni  Prim <NA>                17         1.8      NA       7  
##  2 Grea Blar omni  Sori lc                  14.9       2.3       0.133   9.1
##  3 Cow   Bos   herbi Arti domesticated         4         0.7       0.667  20  
##  4 Dog   Canis carni Carn domesticated        10.1       2.9       0.333  13.9
##  5 Roe  Capr herbi Arti lc                   3        NA        NA      21  
##  6 Goat  Capri herbi Arti lc                   5.3       0.6      NA      18.7
##  7 Guin Cavis herbi Rode domesticated         9.4       0.8       0.217  14.6
##  8 Chin Chin herbi Rode domesticated        12.5       1.5       0.117  11.5
##  9 Star Cond omni  Sori lc                  10.3       2.2      NA      13.7
## 10 Afri Cric omni  Rode <NA>                 8.3       2        NA      15.7
## #  with 46 more rows, and 2 more variables: brainwt <dbl>, bodywt <dbl>

msleep %>%
  replace_na(list(brainwt = 0)) -> msleep_brainwt0 #named it because 0 replaced na

msleep_brainwt0

## # A tibble: 83 x 11
##    name  genus vore  order conservation sleep_total sleep_rem sleep_cycle awake
##    <chr> <chr> <chr> <chr> <chr>              <dbl>     <dbl>       <dbl> <dbl>
##  1 Chee Acin carni Carn lc                  12.1      NA        NA      11.9
##  2 Owl  Aotus omni  Prim <NA>                17         1.8      NA       7  
##  3 Moun Aplo herbi Rode nt                  14.4       2.4      NA       9.6
##  4 Grea Blar omni  Sori lc                  14.9       2.3       0.133   9.1
##  5 Cow   Bos   herbi Arti domesticated         4         0.7       0.667  20  
##  6 Thre Brad herbi Pilo <NA>                14.4       2.2       0.767   9.6
##  7 Nort Call carni Carn vu                   8.7       1.4       0.383  15.3
##  8 Vesp Calo <NA>  Rode <NA>                 7        NA        NA      17  
##  9 Dog   Canis carni Carn domesticated        10.1       2.9       0.333  13.9
## 10 Roe  Capr herbi Arti lc                   3        NA        NA      21  
## #  with 73 more rows, and 2 more variables: brainwt <dbl>, bodywt <dbl>
…
pima

## # A tibble: 752 x 9
##    npreg glucose   dbp  skin insulin   bmi pedigree   age diabetic
##    <dbl>   <dbl> <dbl> <dbl>   <dbl> <dbl>    <dbl> <dbl> <chr>   
##  1     6     148    72    35       0  33.6    0.627    50 Yes     
##  2     1      85    66    29       0  26.6    0.351    31 No      
##  3     8     183    64     0       0  23.3    0.672    32 Yes     
##  4     1      89    66    23      94  28.1    0.167    21 No      
##  5     0     137    40    35     168  43.1    2.29     33 Yes     
##  6     5     116    74     0       0  25.6    0.201    30 No      
##  7     3      78    50    32      88  31      0.248    26 Yes     
##  8    10     115     0     0       0  35.3    0.134    29 No      
##  9     2     197    70    45     543  30.5    0.158    53 Yes     
## 10     4     110    92     0       0  37.6    0.191    30 No      
## #  with 742 more rows

Create a new column called glucose_status using the functions mutate() and case_when() that recodes glucose into levels low (<= 70), average (>70, <=120), above-average (>120, <=160), and high (>160). Save your result to a new variable and print the output to confirm. HINT!! You may need to refer back to the intro lab to remind yourself about &.

# wrangle
pima %>%
  mutate(glucose_status = case_when(glucose <= 70 ~ "low",
                                    glucose >70 & glucose <= 120 ~ "average", 
                                    glucose >120 & glucose <= 160 ~ "above-average", 
                                    glucose > 160 ~ "high")) -> pima2

pima2

## # A tibble: 752 x 10
##    npreg glucose   dbp  skin insulin   bmi pedigree   age diabetic
##    <dbl>   <dbl> <dbl> <dbl>   <dbl> <dbl>    <dbl> <dbl> <chr>   
##  1     6     148    72    35       0  33.6    0.627    50 Yes     
##  2     1      85    66    29       0  26.6    0.351    31 No      
##  3     8     183    64     0       0  23.3    0.672    32 Yes     
##  4     1      89    66    23      94  28.1    0.167    21 No      
##  5     0     137    40    35     168  43.1    2.29     33 Yes     
##  6     5     116    74     0       0  25.6    0.201    30 No      
##  7     3      78    50    32      88  31      0.248    26 Yes     
##  8    10     115     0     0       0  35.3    0.134    29 No      
##  9     2     197    70    45     543  30.5    0.158    53 Yes     
## 10     4     110    92     0       0  37.6    0.191    30 No      
## #  with 742 more rows, and 1 more variable: glucose_status <chr>
…
Use if_else() and mutate() to create a new column called pregnant to say Yes if the individual ever was pregant, and No if the individual never had a pregnancy. Save the output for subsequent use.

#ifelseif

pima2 %>%
  mutate("pregnant" = if_else(npreg < 1, "No", "Yes")) -> if_pregnant #if <1, prints no, if otherwise, prints yes 

if_pregnant

## # A tibble: 752 x 11
##    npreg glucose   dbp  skin insulin   bmi pedigree   age diabetic
##    <dbl>   <dbl> <dbl> <dbl>   <dbl> <dbl>    <dbl> <dbl> <chr>   
##  1     6     148    72    35       0  33.6    0.627    50 Yes     
##  2     1      85    66    29       0  26.6    0.351    31 No      
##  3     8     183    64     0       0  23.3    0.672    32 Yes     
##  4     1      89    66    23      94  28.1    0.167    21 No      
##  5     0     137    40    35     168  43.1    2.29     33 Yes     
##  6     5     116    74     0       0  25.6    0.201    30 No      
##  7     3      78    50    32      88  31      0.248    26 Yes     
##  8    10     115     0     0       0  35.3    0.134    29 No      
##  9     2     197    70    45     543  30.5    0.158    53 Yes     
## 10     4     110    92     0       0  37.6    0.191    30 No      
## #  with 742 more rows, and 2 more variables: glucose_status <chr>,
## #   pregnant <chr>
…
## # A tibble: 1 x 1
##     sum
##   <dbl>
## 1     0

From the original dataset, replace the column diabetic with a new version that says TRUE and FALSE instead of Yes and No.Do this in two ways: with if_else() and with case_when(). Be careful not to actually overwrite the original version of the data itself!!

# solution with if_else
 pima %>%
  mutate(diabetic2 = if_else(diabetic == "Yes", TRUE, FALSE)) %>% #if yes, prints true, if not, prints false
           select(- diabetic) -> ifelse_diabetic 

ifelse_diabetic

## # A tibble: 752 x 9
##    npreg glucose   dbp  skin insulin   bmi pedigree   age diabetic2
##    <dbl>   <dbl> <dbl> <dbl>   <dbl> <dbl>    <dbl> <dbl> <lgl>    
##  1     6     148    72    35       0  33.6    0.627    50 TRUE     
##  2     1      85    66    29       0  26.6    0.351    31 FALSE    
##  3     8     183    64     0       0  23.3    0.672    32 TRUE     
##  4     1      89    66    23      94  28.1    0.167    21 FALSE    
##  5     0     137    40    35     168  43.1    2.29     33 TRUE     
##  6     5     116    74     0       0  25.6    0.201    30 FALSE    
##  7     3      78    50    32      88  31      0.248    26 TRUE     
##  8    10     115     0     0       0  35.3    0.134    29 FALSE    
##  9     2     197    70    45     543  30.5    0.158    53 TRUE     
## 10     4     110    92     0       0  37.6    0.191    30 FALSE    
## #  with 742 more rows

# solution with case_when

pima %>%
  mutate(diabetic2 = case_when(diabetic == "Yes" ~ TRUE, diabetic == "No" ~ FALSE)) %>% #mutated new column when diabetic is yes/no
  select(- diabetic) -> casewhen_diabetic #get rid of old column of yes and no

casewhen_diabetic

## # A tibble: 752 x 9
##    npreg glucose   dbp  skin insulin   bmi pedigree   age diabetic2
##    <dbl>   <dbl> <dbl> <dbl>   <dbl> <dbl>    <dbl> <dbl> <lgl>    
##  1     6     148    72    35       0  33.6    0.627    50 TRUE     
##  2     1      85    66    29       0  26.6    0.351    31 FALSE    
##  3     8     183    64     0       0  23.3    0.672    32 TRUE     
##  4     1      89    66    23      94  28.1    0.167    21 FALSE    
##  5     0     137    40    35     168  43.1    2.29     33 TRUE     
##  6     5     116    74     0       0  25.6    0.201    30 FALSE    
##  7     3      78    50    32      88  31      0.248    26 TRUE     
##  8    10     115     0     0       0  35.3    0.134    29 FALSE    
##  9     2     197    70    45     543  30.5    0.158    53 TRUE     
## 10     4     110    92     0       0  37.6    0.191    30 FALSE    
## #  with 742 more rows
…
