ANSWERS: Working with untidy and tidy data
…
# Code chunk to convert data to tidy
mcv_immunized %>%
  pivot_longer(`1980`:`2011`, names_to = "year", values_to = "percent") -> tidymcv

tidymcv

## # A tibble: 6,176 x 3
##    country     year  percent
##    <chr>       <chr>   <dbl>
##  1 Afghanistan 1980       11
##  2 Afghanistan 1981       NA
##  3 Afghanistan 1982        8
##  4 Afghanistan 1983        9
##  5 Afghanistan 1984       14
##  6 Afghanistan 1985       14
##  7 Afghanistan 1986       14
##  8 Afghanistan 1987       31
##  9 Afghanistan 1988       34
## 10 Afghanistan 1989       22
## #  with 6,166 more rows
…
# Code chunk to read in and examine the data with head()
read_csv(paste0(params$data_path, "dtp3_immunized_percent_of_one_year_olds.csv")) -> dtp3_immunized

## Parsed with column specification:
## cols(
##   .default = col_double(),
##   country = col_character()
## )

## See spec(...) for full column specifications.

dtp3_immunized

## # A tibble: 193 x 33
##    country `1980` `1981` `1982` `1983` `1984` `1985` `1986` `1987` `1988` `1989`
##    <chr>    <dbl>  <dbl>  <dbl>  <dbl>  <dbl>  <dbl>  <dbl>  <dbl>  <dbl>  <dbl>
##  1 Afghan      4      3      5      5     16     15     11     25     35     33
##  2 Albania     94     94     95     95     95     96     96     96     96     94
##  3 Algeria     NA     NA     NA     NA     NA     69     73     79     85     87
##  4 Andorra     NA     NA     NA     NA     NA     NA     NA     NA     NA     NA
##  5 Angola      NA     NA     NA      6      8      8     10     10     12     18
##  6 Antigu     54     79     79     99     94     99     96     97     98     99
##  7 Argent     44     49     58     61     62     66     67     75     80     80
##  8 Armenia     NA     NA     NA     NA     NA     NA     NA     NA     NA     NA
##  9 Austra     33     40     48     55     62     68     75     81     88     93
## 10 Austria     90     90     90     90     90     90     90     90     90     90
## #  with 183 more rows, and 22 more variables: `1990` <dbl>, `1991` <dbl>,
## #   `1992` <dbl>, `1993` <dbl>, `1994` <dbl>, `1995` <dbl>, `1996` <dbl>,
## #   `1997` <dbl>, `1998` <dbl>, `1999` <dbl>, `2000` <dbl>, `2001` <dbl>,
## #   `2002` <dbl>, `2003` <dbl>, `2004` <dbl>, `2005` <dbl>, `2006` <dbl>,
## #   `2007` <dbl>, `2008` <dbl>, `2009` <dbl>, `2010` <dbl>, `2011` <dbl>
…
# Code chunk to convert data to tidy and combine with question 1 data
dtp3_immunized %>%
  pivot_longer(`1980`:`2011`, names_to = "year", values_to = "percent") -> tidy_dtp3
  #need back ticks to make it work
tidy_dtp3 %>%
  mutate(vaccine = "dtp3") -> dtp3_vaccine

tidymcv %>%
  mutate(vaccine = "mcv") -> mcv_vaccine

bind_rows(mcv_vaccine, dtp3_vaccine) -> new_vaccine
#have the same labels so can bind
new_vaccine

## # A tibble: 12,352 x 4
##    country     year  percent vaccine
##    <chr>       <chr>   <dbl> <chr>  
##  1 Afghanistan 1980       11 mcv    
##  2 Afghanistan 1981       NA mcv    
##  3 Afghanistan 1982        8 mcv    
##  4 Afghanistan 1983        9 mcv    
##  5 Afghanistan 1984       14 mcv    
##  6 Afghanistan 1985       14 mcv    
##  7 Afghanistan 1986       14 mcv    
##  8 Afghanistan 1987       31 mcv    
##  9 Afghanistan 1988       34 mcv    
## 10 Afghanistan 1989       22 mcv    
## #  with 12,342 more rows

new_vaccine %>%
  mutate(year = as.numeric(year)) -> numeric_vaccine
  #want year
numeric_vaccine

## # A tibble: 12,352 x 4
##    country      year percent vaccine
##    <chr>       <dbl>   <dbl> <chr>  
##  1 Afghanistan  1980      11 mcv    
##  2 Afghanistan  1981      NA mcv    
##  3 Afghanistan  1982       8 mcv    
##  4 Afghanistan  1983       9 mcv    
##  5 Afghanistan  1984      14 mcv    
##  6 Afghanistan  1985      14 mcv    
##  7 Afghanistan  1986      14 mcv    
##  8 Afghanistan  1987      31 mcv    
##  9 Afghanistan  1988      34 mcv    
## 10 Afghanistan  1989      22 mcv    
## #  with 12,342 more rows
…
